-0.971602,-0.019099
-10.981140,-0.032136
-20.976290,-0.042750
-30.990700,-0.049955
-40.985430,-0.054069
-51.001870,-0.056813
-60.997740,-0.058186
-70.995100,-0.059119
-81.000300,-0.059483
-90.988040,-0.060179
-100.996400,-0.060345
-110.981400,-0.060700
-120.967200,-0.061062
-130.975100,-0.061132
-140.963500,-0.061014
-150.973700,-0.061404
-160.974100,-0.061380
-170.989300,-0.061289
-180.988300,-0.061665
-190.981200,-0.061582
-200.999300,-0.061980
-210.995100,-0.062279
-221.012200,-0.063098
-231.000600,-0.063534
-240.988200,-0.064759
-250.995000,-0.066418
-260.980000,-0.067885
-270.987900,-0.069349
-280.974300,-0.070739
-290.981400,-0.071802
-300.974100,-0.072778
-310.972900,-0.073037
-320.988300,-0.073740
-330.985500,-0.074733
-340.999500,-0.075175
-350.997700,-0.075672
-361.012100,-0.075944
-371.009100,-0.077011
-380.998900,-0.077259
-391.005700,-0.077360
-400.993000,-0.078626
-410.997600,-0.079284
-420.981400,-0.079495
-430.968600,-0.080399
-440.974200,-0.080294
-450.964700,-0.081578
-460.982500,-0.082916
-470.978100,-0.083174
-480.994300,-0.083555
-490.989100,-0.084860
-500.989100,-0.084934
-511.004800,-0.085370
-521.002400,-0.086378
-531.009800,-0.087535
-540.998200,-0.088955
-551.004200,-0.089145
-560.991600,-0.090632
-570.976000,-0.091027
-580.981100,-0.091320
-590.968200,-0.092140
-600.979000,-0.093666
-610.974400,-0.094456
-620.972800,-0.095198
-630.989600,-0.095451
-640.981900,-0.096929
-650.997600,-0.097299
-660.994300,-0.098676
-671.011100,-0.099919
-680.999800,-0.101375
-690.986000,-0.102126
-700.990400,-0.103142
